Publication Quality Kaplan-Meier Survival Curves using ggplot2 | Michael Luu
…
## Rows: 137
## Columns: 8
## $ trt      <dbl> 1, 1, 1, 1, 1, 1, 1, 1, 1, 1, 1, 1, 1, 1, 1, 1, 1, 1, 1, 1...
## $ celltype <fct> squamous, squamous, squamous, squamous, squamous, squamous...
## $ time     <dbl> 72, 411, 228, 126, 118, 10, 82, 110, 314, 100, 42, 8, 144,...
## $ status   <dbl> 1, 1, 1, 1, 1, 1, 1, 1, 1, 0, 1, 1, 1, 0, 1, 1, 1, 1, 1, 1...
## $ karno    <dbl> 60, 70, 60, 60, 70, 20, 40, 80, 50, 70, 60, 40, 30, 80, 70...
## $ diagtime <dbl> 7, 5, 3, 9, 11, 5, 10, 29, 18, 6, 4, 58, 4, 9, 11, 3, 9, 2...
## $ age      <dbl> 69, 64, 38, 63, 65, 49, 69, 68, 43, 70, 81, 63, 63, 52, 48...
## $ prior    <dbl> 0, 10, 0, 10, 10, 0, 10, 0, 0, 0, 0, 10, 0, 10, 10, 0, 0, ...

df

## # A tibble: 137 x 8
##      trt celltype  time status karno diagtime   age prior
##    <dbl> <fct>    <dbl>  <dbl> <dbl>    <dbl> <dbl> <dbl>
##  1     1 squamous    72      1    60        7    69     0
##  2     1 squamous   411      1    70        5    64    10
##  3     1 squamous   228      1    60        3    38     0
##  4     1 squamous   126      1    60        9    63    10
##  5     1 squamous   118      1    70       11    65    10
##  6     1 squamous    10      1    20        5    49     0
##  7     1 squamous    82      1    40       10    69    10
##  8     1 squamous   110      1    80       29    68     0
##  9     1 squamous   314      1    50       18    43     0
## 10     1 squamous   100      0    70        6    70     0
## # ... with 127 more rows
…
