Natural Language Processing (NLP) and developing a machine learning classifier on Beyonce and Taylor Swift lyrics #TidyTuesday | Michael Luu
…
taylor_swift_lyrics <-
  readr::read_csv(
    'https://raw.githubusercontent.com/rfordatascience/tidytuesday/master/data/2020/2020-09-29/taylor_swift_lyrics.csv'
  )  %>%
  janitor::clean_names()

Data pre-processing and feature engineering

It appears the beyonce_lyrics and the taylor_swift_lyrics are the pertinent data sets for building our machine learning classifier. Let’s have a closer look at the two datasets.

beyonce_lyrics 

## # A tibble: 22,616 x 6
##    line                        song_id song_name artist_id artist_name song_line
##    <chr>                         <dbl> <chr>         <dbl> <chr>           <dbl>
##  1 If I ain't got nothing, I ~   50396 1+1             498 Beyoncé             1
##  2 If I ain't got something, ~   50396 1+1             498 Beyoncé             2
##  3 'Cause I got it with you      50396 1+1             498 Beyoncé             3
##  4 I don't know much about al~   50396 1+1             498 Beyoncé             4
##  5 And it's me and you           50396 1+1             498 Beyoncé             5
##  6 That's all we'll have when~   50396 1+1             498 Beyoncé             6
##  7 'Cause baby, we ain't got ~   50396 1+1             498 Beyoncé             7
##  8 Darling, you got enough fo~   50396 1+1             498 Beyoncé             8
##  9 So come on, baby, make lov~   50396 1+1             498 Beyoncé             9
## 10 When my days look low         50396 1+1             498 Beyoncé            10
## # ... with 22,606 more rows

glimpse(beyonce_lyrics)

## Rows: 22,616
## Columns: 6
## $ line        <chr> "If I ain't got nothing, I got you", "If I ain't got so...
## $ song_id     <dbl> 50396, 50396, 50396, 50396, 50396, 50396, 50396, 50396,...
## $ song_name   <chr> "1+1", "1+1", "1+1", "1+1", "1+1", "1+1", "1+1", "1+1",...
## $ artist_id   <dbl> 498, 498, 498, 498, 498, 498, 498, 498, 498, 498, 498, ...
## $ artist_name <chr> "Beyoncé", "Beyoncé", "Beyoncé", "Beyoncé", "Beyoncé", ...
## $ song_line   <dbl> 1, 2, 3, 4, 5, 6, 7, 8, 9, 10, 11, 12, 13, 14, 15, 16, ...

taylor_swift_lyrics

## # A tibble: 132 x 4
##    artist    album     title           lyrics                                   
##    <chr>     <chr>     <chr>           <chr>                                    
##  1 Taylor S~ Taylor S~ Tim McGraw      "He said the way my blue eyes shinx\nPut~
##  2 Taylor S~ Taylor S~ Picture to Burn "State the obvious, I didn't get my perf~
##  3 Taylor S~ Taylor S~ Teardrops on m~ "Drew looks at me,\nI fake a smile so he~
##  4 Taylor S~ Taylor S~ A Place in Thi~ "I don't know what I want, so don't ask ~
##  5 Taylor S~ Taylor S~ Cold As You     "You have a way of coming easily to me\n~
##  6 Taylor S~ Taylor S~ The Outside     "I didn't know what I would find\nWhen I~
##  7 Taylor S~ Taylor S~ Tied Together ~ "Seems the only one who doesn't see your~
##  8 Taylor S~ Taylor S~ Stay Beautiful  "Cory's eyes are like a jungle\nHe smile~
##  9 Taylor S~ Taylor S~ Should’ve Said~ "It's strange to think the songs we used~
## 10 Taylor S~ Taylor S~ Mary’s Song     "She said\n\"I was seven, and you were n~
## # ... with 122 more rows
…
beyonce_lyrics

## # A tibble: 391 x 3
##    artist  title                        lyrics                                  
##    <chr>   <chr>                        <chr>                                   
##  1 Beyoncé "\"Self-Titled\" Part 1 . T~ "I see music. It's more than just...wha~
##  2 Beyoncé "\"Self-Titled\" Part 2 . I~ "There's a moment where things click. W~
##  3 Beyoncé "***Flawless (Ft. Chimamand~ "Your challengers are a young group fro~
##  4 Beyoncé "***Flawless (Remix) (Ft. N~ "Dum-da-de-da Do, do, do, do, do, do (C~
##  5 Beyoncé "<U+200B>come home (nala interlude)" "You have to come home We've really nee~
##  6 Beyoncé "<U+200B>war (nala interlude)"       "Your reign is over, Scar If you wanna ~
##  7 Beyoncé "<U+200E>blind trust"                "Go out tonight Feel nice tonight Stay ~
##  8 Beyoncé "1+1"                        "If I ain't got nothing, I got you If I~
##  9 Beyoncé "2017 Grammy's Best Urban C~ "Thank you so much. Hi, baby. Thank you~
## 10 Beyoncé "6 Inch (Ft. The Weeknd)"    "Six inch heels, she walked in the club~
## # ... with 381 more rows

Okay - this appears to be much better, and will allow us to merge them together with the Taylor Swift data. Our outcome y that we are trying to predict will be the ‘artist’ column. The features x will be the song lyrics. In order to get them to a usable state for our model, we will have to perform some preprocessing and feature engineering.

taylor_swift_lyrics <- taylor_swift_lyrics %>% 
  select(
    artist, title, lyrics
  )

data <- bind_rows(
  taylor_swift_lyrics, beyonce_lyrics
)

data

## # A tibble: 523 x 3
##    artist     title             lyrics                                          
##    <chr>      <chr>             <chr>                                           
##  1 Taylor Sw~ Tim McGraw        "He said the way my blue eyes shinx\nPut those ~
##  2 Taylor Sw~ Picture to Burn   "State the obvious, I didn't get my perfect fan~
##  3 Taylor Sw~ Teardrops on my ~ "Drew looks at me,\nI fake a smile so he won't ~
##  4 Taylor Sw~ A Place in This ~ "I don't know what I want, so don't ask me\n'Ca~
##  5 Taylor Sw~ Cold As You       "You have a way of coming easily to me\nAnd whe~
##  6 Taylor Sw~ The Outside       "I didn't know what I would find\nWhen I went l~
##  7 Taylor Sw~ Tied Together Wi~ "Seems the only one who doesn't see your beauty~
##  8 Taylor Sw~ Stay Beautiful    "Cory's eyes are like a jungle\nHe smiles; it's~
##  9 Taylor Sw~ Should’ve Said No "It's strange to think the songs we used to sin~
## 10 Taylor Sw~ Mary’s Song       "She said\n\"I was seven, and you were nine\nI ~
## # ... with 513 more rows
…
