My life in Months - Making a 'life plot' in R using ggplot2 | Michael Luu
…
df <- tibble(
  date = seq(mdy('9/1/1987'), floor_date(Sys.Date(), 'month'), 'month')
) %>%
  mutate(
    month = month(date),
    year = year(date)
  )

df <- tibble(date = seq(mdy('9/1/1987'), Sys.Date(), '1 month')) %>%
  mutate(month = month(date),
         year = year(date))

df

## # A tibble: 398 x 3
##    date       month  year
##    <date>     <dbl> <dbl>
##  1 1987-09-01     9  1987
##  2 1987-10-01    10  1987
##  3 1987-11-01    11  1987
##  4 1987-12-01    12  1987
##  5 1988-01-01     1  1988
##  6 1988-02-01     2  1988
##  7 1988-03-01     3  1988
##  8 1988-04-01     4  1988
##  9 1988-05-01     5  1988
## 10 1988-06-01     6  1988
## # ... with 388 more rows
…
plot_data

## # A tibble: 398 x 4
##    date       month  year era      
##    <date>     <dbl> <dbl> <fct>    
##  1 1987-09-01     9  1987 Childhood
##  2 1987-10-01    10  1987 Childhood
##  3 1987-11-01    11  1987 Childhood
##  4 1987-12-01    12  1987 Childhood
##  5 1988-01-01     1  1988 Childhood
##  6 1988-02-01     2  1988 Childhood
##  7 1988-03-01     3  1988 Childhood
##  8 1988-04-01     4  1988 Childhood
##  9 1988-05-01     5  1988 Childhood
## 10 1988-06-01     6  1988 Childhood
## # ... with 388 more rows
…
